…
``` r
hotel_all %>% group_by(city) %>% summarise(Count = n()) %>% arrange(desc(Count))
```

    ## `summarise()` ungrouping output (override with `.groups` argument)

    ## # A tibble: 193 x 2
    ##    city        Count
    ##    <chr>       <int>
    ##  1 Las Vegas  162151
    ##  2 Phoenix     16230
    ##  3 Scottsdale  12989
    ##  4 Toronto      6869
    ##  5 Charlotte    6783
    ##  6 Henderson    5559
    ##  7 Pittsburgh   5336
    ##  8 Tempe        3872
    ##  9 MontrÃ©al    3667
    ## 10 Cleveland    3604
    ## # ... with 183 more rows
…
